module chat

go 1.13

require (
	github.com/go-redis/redis v6.15.6+incompatible
	github.com/go-sql-driver/mysql v1.4.1
	github.com/gorilla/websocket v1.4.1
	github.com/jmoiron/sqlx v1.2.0
	github.com/onsi/ginkgo v1.10.3 // indirect
	github.com/onsi/gomega v1.7.1 // indirect
	github.com/rs/zerolog v1.16.0
	google.golang.org/appengine v1.6.5 // indirect
)
