{
  "bind_addr": ":8080",
  "log_level": "debug",
  "login_cookie_expire": 120,
  "data_bus_channel": "chats",
  "common_chat_id": 1,
  "redis": {
    "addr": "redis:6379",
    "password": "",
    "db": 0
  },
  "database_url": "root:example@tcp(db:3306)/chat"
}